764159328
298634715
153872694
317946852
486523179
529781436
635497281
942318567
871265943

926781543
158423697
347965218
735819426
689247135
214356789
473692851
592178364
861534972

236458179
451697328
978312654
549163782
713829546
682574913
895231467
127946835
364785291

179683452
342915687
856427931
625149873
791538264
438276519
983764125
517892346
264351798

483671925
517923468
629845317
261584793
735192846
948367152
856439271
174258639
392716584

657123498
241869573
938457261
362715984
485692137
179384652
713546829
896271345
524938716
